 
 ! ************************************************************************** !
 
 Initial Basis
 
 Primary Species:
  Am-241
    Charge:   0.00
    Molar Mass:  241.0600 [g/mol]
    Debye-Huckel a0:    3.0000 [Angstrom]
 
  Dtr
    Charge:   0.00
    Molar Mass:  100.0000 [g/mol]
    Debye-Huckel a0:    3.0000 [Angstrom]
 
 
 Secondary Species: None
 
 Gas Components: None
 
 Minerals: None
 
 Surface Complexation Reactions: None
 
   Surface Complexes: None
 
 Ion Exchange Reactions: None
 
 ! ************************************************************************** !
 
 
 ! ************************************************************************** !
 
 Final Basis
 
 Primary Species:
  Am-241
    Charge:   0.00
    Molar Mass:  241.0600 [g/mol]
    Debye-Huckel a0:    3.0000 [Angstrom]
 
  Dtr
    Charge:   0.00
    Molar Mass:  100.0000 [g/mol]
    Debye-Huckel a0:    3.0000 [Angstrom]
 
 
 Secondary Species: None
 
 Gas Components: None
 
 Minerals: None
 
 Surface Complexation Reactions: None
 
   Surface Complexes: None
 
 Ion Exchange Reactions: None
 
 ! ************************************************************************** !
 
--------------------------------------------------------------------------------

     2  Primary Species

              Am-241                Dtr                 

     0  Secondary Complex Species



     0  Active Gas Species



     0  Passive Gas Species



     0  Reference Minerals



     0  Kinetic Mineral Reactions



     0  Ion Exchange Reactions

     0  Ion Exchange Cations
--------------------------------------------------------------------------------
 
=+=+=+=+=+=+=+=+=+=+=+=+=+=+=+=+=+=+=+=+=+=+=+=+=+=+=+=+=+=+=+=+=+=+=+=+=+=+=+=+

  Initial Condition

--------------------------------------------------------------------------------
     Transport Condition:   initial
                  Region:   all
--------------------------------------------------------------------------------

  Transport Condition: initial

  Constraint: initial
  ----------------------------------------------------------------------------
        iterations:     5
    ionic strength:   0.0000E+00 [mol/L]
    charge balance:   0.0000E+00
          pressure:   1.0132E+05 [Pa]
       temperature:    25.00 [C]
       density H2O:   997.16 [kg/m^3]
 ln / activity H2O:   0.0000E+00  1.0000E+00    [---]
 mole fraction H2O:   3.5629E-01    [---]
 mass fraction H2O:   3.9723E-02    [---]
  ----------------------------------------------------------------------------

  primary               free        total
  species               molal       molal       act coef     constraint
  ----------------------------------------------------------------------------
  Am-241                1.0028E+02  1.0028E+02  1.0000E+00    total aq
  Dtr                   1.0028E-21  1.0028E-21  1.0000E+00    total aq


--------------------------------------------------------------------------------

 Requested processors and decomposition =     1, npx,y,z=   -1  -1  -1
 Actual decomposition: npx,y,z=    1   1   1

 
TRAN Time Stepper
max steps: 999999
max constant cumulative time steps: 5
max cuts: 16
ts reduction factor: 0.500000000000000
 
TRAN Newton Solver
        atol:  1.0000E-12
        rtol:  1.0000E-08
        stol:  1.0000E-08
        dtol:  1.0000E+20
     maxnorm:  1.0000E+20
   inftolres: -9.9900E+02
   inftolupd: -9.9900E+02
inftolrelupd: -9.9900E+02
inftolsclres: -9.9900E+02
    max iter:    50
    min iter:     3
        maxf: 10000
 
matrix type:baij                
precond. matrix type:baij                
inexact newton: off
print convergence: on
print detailed convergence: off
check infinity norm: on
 
TRAN Linear Solver
   solver:  bcgs
  precond:  ilu
     atol:  1.0000E-50
     rtol:  1.0000E-05
     dtol:  1.0000E+04
 max iter:  10000
 Step      1 Time=  1.00000E+02 Dt=  1.00000E+02 [y] snes_conv_reason:    2
  newton =   3 [       3] linear =     3 [         3] cuts =  0 [   0]
  --> max chng: dcmx=   1.3847E+01  dc/dt=   4.3907E-09 [mol/s]
 Step      2 Time=  2.00000E+02 Dt=  1.00000E+02 [y] snes_conv_reason:    2
  newton =   3 [       6] linear =     3 [         6] cuts =  0 [   0]
  --> max chng: dcmx=   1.1935E+01  dc/dt=   3.7845E-09 [mol/s]
 Step      3 Time=  3.00000E+02 Dt=  1.00000E+02 [y] snes_conv_reason:    2
  newton =   3 [       9] linear =     3 [         9] cuts =  0 [   0]
  --> max chng: dcmx=   1.0287E+01  dc/dt=   3.2620E-09 [mol/s]
 Step      4 Time=  4.00000E+02 Dt=  1.00000E+02 [y] snes_conv_reason:    2
  newton =   3 [      12] linear =     3 [        12] cuts =  0 [   0]
  --> max chng: dcmx=   8.8666E+00  dc/dt=   2.8116E-09 [mol/s]
 Step      5 Time=  5.00000E+02 Dt=  1.00000E+02 [y] snes_conv_reason:    2
  newton =   3 [      15] linear =     3 [        15] cuts =  0 [   0]
  --> max chng: dcmx=   7.6423E+00  dc/dt=   2.4234E-09 [mol/s]
 Step      6 Time=  6.00000E+02 Dt=  1.00000E+02 [y] snes_conv_reason:    2
  newton =   3 [      18] linear =     3 [        18] cuts =  0 [   0]
  --> max chng: dcmx=   6.5871E+00  dc/dt=   2.0888E-09 [mol/s]
 Step      7 Time=  7.00000E+02 Dt=  1.00000E+02 [y] snes_conv_reason:    2
  newton =   3 [      21] linear =     3 [        21] cuts =  0 [   0]
  --> max chng: dcmx=   5.6776E+00  dc/dt=   1.8004E-09 [mol/s]
 Step      8 Time=  8.00000E+02 Dt=  1.00000E+02 [y] snes_conv_reason:    2
  newton =   3 [      24] linear =     3 [        24] cuts =  0 [   0]
  --> max chng: dcmx=   4.8937E+00  dc/dt=   1.5518E-09 [mol/s]
 Step      9 Time=  9.00000E+02 Dt=  1.00000E+02 [y] snes_conv_reason:    2
  newton =   3 [      27] linear =     3 [        27] cuts =  0 [   0]
  --> max chng: dcmx=   4.2180E+00  dc/dt=   1.3375E-09 [mol/s]
 Step     10 Time=  1.00000E+03 Dt=  1.00000E+02 [y] snes_conv_reason:    2
  newton =   3 [      30] linear =     3 [        30] cuts =  0 [   0]
  --> max chng: dcmx=   3.6356E+00  dc/dt=   1.1528E-09 [mol/s]
 Step     11 Time=  1.10000E+03 Dt=  1.00000E+02 [y] snes_conv_reason:    2
  newton =   3 [      33] linear =     3 [        33] cuts =  0 [   0]
  --> max chng: dcmx=   3.1336E+00  dc/dt=   9.9367E-10 [mol/s]
 Step     12 Time=  1.20000E+03 Dt=  1.00000E+02 [y] snes_conv_reason:    2
  newton =   3 [      36] linear =     3 [        36] cuts =  0 [   0]
  --> max chng: dcmx=   2.7010E+00  dc/dt=   8.5647E-10 [mol/s]
 Step     13 Time=  1.30000E+03 Dt=  1.00000E+02 [y] snes_conv_reason:    2
  newton =   3 [      39] linear =     3 [        39] cuts =  0 [   0]
  --> max chng: dcmx=   2.3280E+00  dc/dt=   7.3821E-10 [mol/s]
 Step     14 Time=  1.40000E+03 Dt=  1.00000E+02 [y] snes_conv_reason:    2
  newton =   3 [      42] linear =     3 [        42] cuts =  0 [   0]
  --> max chng: dcmx=   2.0066E+00  dc/dt=   6.3629E-10 [mol/s]
 Step     15 Time=  1.50000E+03 Dt=  1.00000E+02 [y] snes_conv_reason:    2
  newton =   3 [      45] linear =     3 [        45] cuts =  0 [   0]
  --> max chng: dcmx=   1.7295E+00  dc/dt=   5.4843E-10 [mol/s]
 Step     16 Time=  1.60000E+03 Dt=  1.00000E+02 [y] snes_conv_reason:    2
  newton =   3 [      48] linear =     3 [        48] cuts =  0 [   0]
  --> max chng: dcmx=   1.4907E+00  dc/dt=   4.7271E-10 [mol/s]
 Step     17 Time=  1.70000E+03 Dt=  1.00000E+02 [y] snes_conv_reason:    2
  newton =   3 [      51] linear =     3 [        51] cuts =  0 [   0]
  --> max chng: dcmx=   1.2849E+00  dc/dt=   4.0744E-10 [mol/s]
 Step     18 Time=  1.80000E+03 Dt=  1.00000E+02 [y] snes_conv_reason:    2
  newton =   3 [      54] linear =     3 [        54] cuts =  0 [   0]
  --> max chng: dcmx=   1.1075E+00  dc/dt=   3.5118E-10 [mol/s]
 Step     19 Time=  1.90000E+03 Dt=  1.00000E+02 [y] snes_conv_reason:    2
  newton =   3 [      57] linear =     3 [        57] cuts =  0 [   0]
  --> max chng: dcmx=   9.5458E-01  dc/dt=   3.0270E-10 [mol/s]
 Step     20 Time=  2.00000E+03 Dt=  1.00000E+02 [y] snes_conv_reason:    2
  newton =   3 [      60] linear =     3 [        60] cuts =  0 [   0]
  --> max chng: dcmx=   8.2278E-01  dc/dt=   2.6090E-10 [mol/s]
 Step     21 Time=  2.10000E+03 Dt=  1.00000E+02 [y] snes_conv_reason:    2
  newton =   3 [      63] linear =     3 [        63] cuts =  0 [   0]
  --> max chng: dcmx=   7.0917E-01  dc/dt=   2.2488E-10 [mol/s]
 Step     22 Time=  2.20000E+03 Dt=  1.00000E+02 [y] snes_conv_reason:    2
  newton =   3 [      66] linear =     3 [        66] cuts =  0 [   0]
  --> max chng: dcmx=   6.1126E-01  dc/dt=   1.9383E-10 [mol/s]
 Step     23 Time=  2.30000E+03 Dt=  1.00000E+02 [y] snes_conv_reason:    2
  newton =   3 [      69] linear =     3 [        69] cuts =  0 [   0]
  --> max chng: dcmx=   5.2686E-01  dc/dt=   1.6707E-10 [mol/s]
 Step     24 Time=  2.40000E+03 Dt=  1.00000E+02 [y] snes_conv_reason:    2
  newton =   3 [      72] linear =     3 [        72] cuts =  0 [   0]
  --> max chng: dcmx=   4.5411E-01  dc/dt=   1.4400E-10 [mol/s]
 Step     25 Time=  2.50000E+03 Dt=  1.00000E+02 [y] snes_conv_reason:    2
  newton =   3 [      75] linear =     3 [        75] cuts =  0 [   0]
  --> max chng: dcmx=   3.9141E-01  dc/dt=   1.2412E-10 [mol/s]
 Step     26 Time=  2.60000E+03 Dt=  1.00000E+02 [y] snes_conv_reason:    2
  newton =   3 [      78] linear =     3 [        78] cuts =  0 [   0]
  --> max chng: dcmx=   3.3737E-01  dc/dt=   1.0698E-10 [mol/s]
 Step     27 Time=  2.70000E+03 Dt=  1.00000E+02 [y] snes_conv_reason:    2
  newton =   3 [      81] linear =     3 [        81] cuts =  0 [   0]
  --> max chng: dcmx=   2.9079E-01  dc/dt=   9.2208E-11 [mol/s]
 Step     28 Time=  2.80000E+03 Dt=  1.00000E+02 [y] snes_conv_reason:    2
  newton =   3 [      84] linear =     3 [        84] cuts =  0 [   0]
  --> max chng: dcmx=   2.5064E-01  dc/dt=   7.9477E-11 [mol/s]
 Step     29 Time=  2.90000E+03 Dt=  1.00000E+02 [y] snes_conv_reason:    2
  newton =   3 [      87] linear =     3 [        87] cuts =  0 [   0]
  --> max chng: dcmx=   2.1603E-01  dc/dt=   6.8503E-11 [mol/s]
 Step     30 Time=  3.00000E+03 Dt=  1.00000E+02 [y] snes_conv_reason:    2
  newton =   3 [      90] linear =     3 [        90] cuts =  0 [   0]
  --> max chng: dcmx=   1.8620E-01  dc/dt=   5.9045E-11 [mol/s]
 Step     31 Time=  3.10000E+03 Dt=  1.00000E+02 [y] snes_conv_reason:    2
  newton =   3 [      93] linear =     3 [        93] cuts =  0 [   0]
  --> max chng: dcmx=   1.6049E-01  dc/dt=   5.0892E-11 [mol/s]
 Step     32 Time=  3.20000E+03 Dt=  1.00000E+02 [y] snes_conv_reason:    2
  newton =   3 [      96] linear =     3 [        96] cuts =  0 [   0]
  --> max chng: dcmx=   1.3833E-01  dc/dt=   4.3865E-11 [mol/s]
 Step     33 Time=  3.30000E+03 Dt=  1.00000E+02 [y] snes_conv_reason:    2
  newton =   3 [      99] linear =     3 [        99] cuts =  0 [   0]
  --> max chng: dcmx=   1.1923E-01  dc/dt=   3.7809E-11 [mol/s]
 Step     34 Time=  3.40000E+03 Dt=  1.00000E+02 [y] snes_conv_reason:    2
  newton =   3 [     102] linear =     3 [       102] cuts =  0 [   0]
  --> max chng: dcmx=   1.0277E-01  dc/dt=   3.2588E-11 [mol/s]
 Step     35 Time=  3.50000E+03 Dt=  1.00000E+02 [y] snes_conv_reason:    2
  newton =   3 [     105] linear =     3 [       105] cuts =  0 [   0]
  --> max chng: dcmx=   8.8581E-02  dc/dt=   2.8089E-11 [mol/s]
 Step     36 Time=  3.60000E+03 Dt=  1.00000E+02 [y] snes_conv_reason:    2
  newton =   3 [     108] linear =     3 [       108] cuts =  0 [   0]
  --> max chng: dcmx=   7.6350E-02  dc/dt=   2.4210E-11 [mol/s]
 Step     37 Time=  3.80000E+03 Dt=  2.00000E+02 [y] snes_conv_reason:    2
  newton =   3 [     111] linear =     3 [       111] cuts =  0 [   0]
  --> max chng: dcmx=   1.1565E-01  dc/dt=   1.8336E-11 [mol/s]
 Step     38 Time=  4.20000E+03 Dt=  4.00000E+02 [y] snes_conv_reason:    2
  newton =   3 [     114] linear =     3 [       114] cuts =  0 [   0]
  --> max chng: dcmx=   1.4097E-01  dc/dt=   1.1175E-11 [mol/s]
 Step     39 Time=  5.00000E+03 Dt=  8.00000E+02 [y] snes_conv_reason:    2
  newton =   3 [     117] linear =     3 [       117] cuts =  0 [   0]
  --> max chng: dcmx=   1.2357E-01  dc/dt=   4.8981E-12 [mol/s]
 Step     40 Time=  6.60000E+03 Dt=  1.60000E+03 [y] snes_conv_reason:    2
  newton =   3 [     120] linear =     3 [       120] cuts =  0 [   0]
  --> max chng: dcmx=   6.9364E-02  dc/dt=   1.3747E-12 [mol/s]
 Step     41 Time=  9.80000E+03 Dt=  3.20000E+03 [y] snes_conv_reason:    2
  newton =   3 [     123] linear =     3 [       123] cuts =  0 [   0]
  --> max chng: dcmx=   2.2645E-02  dc/dt=   2.2440E-13 [mol/s]
 Step     42 Time=  1.62000E+04 Dt=  6.40000E+03 [y] snes_conv_reason:    2
  newton =   3 [     126] linear =     3 [       126] cuts =  0 [   0]
  --> max chng: dcmx=   4.0250E-03  dc/dt=   1.9943E-14 [mol/s]
 Step     43 Time=  2.90000E+04 Dt=  1.28000E+04 [y] snes_conv_reason:    2
  newton =   3 [     129] linear =     3 [       129] cuts =  0 [   0]
  --> max chng: dcmx=   3.7434E-04  dc/dt=   9.2737E-16 [mol/s]
 Step     44 Time=  5.46000E+04 Dt=  2.56000E+04 [y] snes_conv_reason:    2
  newton =   3 [     132] linear =     3 [       132] cuts =  0 [   0]
  --> max chng: dcmx=   1.7822E-05  dc/dt=   2.2076E-17 [mol/s]
 Step     45 Time=  1.05800E+05 Dt=  5.12000E+04 [y] snes_conv_reason:    2
  newton =   3 [     135] linear =     3 [       135] cuts =  0 [   0]
  --> max chng: dcmx=   4.2936E-07  dc/dt=   2.6591E-19 [mol/s]
 Step     46 Time=  2.05800E+05 Dt=  1.00000E+05 [y] snes_conv_reason:    2
  newton =   3 [     138] linear =     3 [       138] cuts =  0 [   0]
  --> max chng: dcmx=   5.2024E-09  dc/dt=   1.6497E-21 [mol/s]
 Step     47 Time=  3.05800E+05 Dt=  1.00000E+05 [y] snes_conv_reason:    2
  newton =   3 [     141] linear =     3 [       141] cuts =  0 [   0]
  --> max chng: dcmx=   3.2275E-11  dc/dt=   1.0234E-23 [mol/s]
 Step     48 Time=  4.05800E+05 Dt=  1.00000E+05 [y] snes_conv_reason:    2
  newton =   3 [     144] linear =     3 [       144] cuts =  0 [   0]
  --> max chng: dcmx=   2.0023E-13  dc/dt=   6.3492E-26 [mol/s]
 Step     49 Time=  5.05800E+05 Dt=  1.00000E+05 [y] snes_conv_reason:    2
  newton =   3 [     147] linear =     3 [       147] cuts =  0 [   0]
  --> max chng: dcmx=   1.2422E-15  dc/dt=   3.9389E-28 [mol/s]
 Step     50 Time=  6.05800E+05 Dt=  1.00000E+05 [y] snes_conv_reason:    2
  newton =   3 [     150] linear =     3 [       150] cuts =  0 [   0]
  --> max chng: dcmx=   7.7062E-18  dc/dt=   2.4436E-30 [mol/s]
 Step     51 Time=  7.05800E+05 Dt=  1.00000E+05 [y] snes_conv_reason:    2
  newton =   3 [     153] linear =     3 [       153] cuts =  0 [   0]
  --> max chng: dcmx=   4.7106E-20  dc/dt=   1.4937E-32 [mol/s]
 Step     52 Time=  8.05800E+05 Dt=  1.00000E+05 [y] snes_conv_reason:    2
  newton =   3 [     156] linear =     3 [       156] cuts =  0 [   0]
  --> max chng: dcmx=   0.0000E+00  dc/dt=   0.0000E+00 [mol/s]
 Step     53 Time=  9.05800E+05 Dt=  1.00000E+05 [y] snes_conv_reason:    2
  newton =   3 [     159] linear =     3 [       159] cuts =  0 [   0]
  --> max chng: dcmx=   0.0000E+00  dc/dt=   0.0000E+00 [mol/s]
 Step     54 Time=  1.00580E+06 Dt=  1.00000E+05 [y] snes_conv_reason:    2
  newton =   3 [     162] linear =     3 [       162] cuts =  0 [   0]
  --> max chng: dcmx=   0.0000E+00  dc/dt=   0.0000E+00 [mol/s]
 Step     55 Time=  1.10580E+06 Dt=  1.00000E+05 [y] snes_conv_reason:    2
  newton =   3 [     165] linear =     3 [       165] cuts =  0 [   0]
  --> max chng: dcmx=   0.0000E+00  dc/dt=   0.0000E+00 [mol/s]
 Step     56 Time=  1.20580E+06 Dt=  1.00000E+05 [y] snes_conv_reason:    2
  newton =   3 [     168] linear =     3 [       168] cuts =  0 [   0]
  --> max chng: dcmx=   0.0000E+00  dc/dt=   0.0000E+00 [mol/s]
 Step     57 Time=  1.30580E+06 Dt=  1.00000E+05 [y] snes_conv_reason:    2
  newton =   3 [     171] linear =     3 [       171] cuts =  0 [   0]
  --> max chng: dcmx=   0.0000E+00  dc/dt=   0.0000E+00 [mol/s]
 Step     58 Time=  1.40580E+06 Dt=  1.00000E+05 [y] snes_conv_reason:    2
  newton =   3 [     174] linear =     3 [       174] cuts =  0 [   0]
  --> max chng: dcmx=   0.0000E+00  dc/dt=   0.0000E+00 [mol/s]
 Step     59 Time=  1.50580E+06 Dt=  1.00000E+05 [y] snes_conv_reason:    2
  newton =   3 [     177] linear =     3 [       177] cuts =  0 [   0]
  --> max chng: dcmx=   0.0000E+00  dc/dt=   0.0000E+00 [mol/s]
 Step     60 Time=  1.60580E+06 Dt=  1.00000E+05 [y] snes_conv_reason:    2
  newton =   3 [     180] linear =     3 [       180] cuts =  0 [   0]
  --> max chng: dcmx=   0.0000E+00  dc/dt=   0.0000E+00 [mol/s]
 Step     61 Time=  1.70580E+06 Dt=  1.00000E+05 [y] snes_conv_reason:    2
  newton =   3 [     183] linear =     3 [       183] cuts =  0 [   0]
  --> max chng: dcmx=   0.0000E+00  dc/dt=   0.0000E+00 [mol/s]
 Step     62 Time=  1.80580E+06 Dt=  1.00000E+05 [y] snes_conv_reason:    2
  newton =   3 [     186] linear =     3 [       186] cuts =  0 [   0]
  --> max chng: dcmx=   0.0000E+00  dc/dt=   0.0000E+00 [mol/s]
 Step     63 Time=  1.90580E+06 Dt=  1.00000E+05 [y] snes_conv_reason:    2
  newton =   3 [     189] linear =     3 [       189] cuts =  0 [   0]
  --> max chng: dcmx=   0.0000E+00  dc/dt=   0.0000E+00 [mol/s]
 Step     64 Time=  2.00580E+06 Dt=  1.00000E+05 [y] snes_conv_reason:    2
  newton =   3 [     192] linear =     3 [       192] cuts =  0 [   0]
  --> max chng: dcmx=   0.0000E+00  dc/dt=   0.0000E+00 [mol/s]
 Step     65 Time=  2.10580E+06 Dt=  1.00000E+05 [y] snes_conv_reason:    2
  newton =   3 [     195] linear =     3 [       195] cuts =  0 [   0]
  --> max chng: dcmx=   0.0000E+00  dc/dt=   0.0000E+00 [mol/s]
 Step     66 Time=  2.20580E+06 Dt=  1.00000E+05 [y] snes_conv_reason:    2
  newton =   3 [     198] linear =     3 [       198] cuts =  0 [   0]
  --> max chng: dcmx=   0.0000E+00  dc/dt=   0.0000E+00 [mol/s]
 Step     67 Time=  2.30580E+06 Dt=  1.00000E+05 [y] snes_conv_reason:    2
  newton =   3 [     201] linear =     3 [       201] cuts =  0 [   0]
  --> max chng: dcmx=   0.0000E+00  dc/dt=   0.0000E+00 [mol/s]
 Step     68 Time=  2.40580E+06 Dt=  1.00000E+05 [y] snes_conv_reason:    2
  newton =   3 [     204] linear =     3 [       204] cuts =  0 [   0]
  --> max chng: dcmx=   0.0000E+00  dc/dt=   0.0000E+00 [mol/s]
 Step     69 Time=  2.50580E+06 Dt=  1.00000E+05 [y] snes_conv_reason:    2
  newton =   3 [     207] linear =     3 [       207] cuts =  0 [   0]
  --> max chng: dcmx=   0.0000E+00  dc/dt=   0.0000E+00 [mol/s]
 Step     70 Time=  2.60580E+06 Dt=  1.00000E+05 [y] snes_conv_reason:    2
  newton =   3 [     210] linear =     3 [       210] cuts =  0 [   0]
  --> max chng: dcmx=   0.0000E+00  dc/dt=   0.0000E+00 [mol/s]
 Step     71 Time=  2.70580E+06 Dt=  1.00000E+05 [y] snes_conv_reason:    2
  newton =   3 [     213] linear =     3 [       213] cuts =  0 [   0]
  --> max chng: dcmx=   0.0000E+00  dc/dt=   0.0000E+00 [mol/s]
 Step     72 Time=  2.80580E+06 Dt=  1.00000E+05 [y] snes_conv_reason:    2
  newton =   3 [     216] linear =     3 [       216] cuts =  0 [   0]
  --> max chng: dcmx=   0.0000E+00  dc/dt=   0.0000E+00 [mol/s]
 Step     73 Time=  2.90580E+06 Dt=  1.00000E+05 [y] snes_conv_reason:    2
  newton =   3 [     219] linear =     3 [       219] cuts =  0 [   0]
  --> max chng: dcmx=   0.0000E+00  dc/dt=   0.0000E+00 [mol/s]
 Step     74 Time=  3.00580E+06 Dt=  1.00000E+05 [y] snes_conv_reason:    2
  newton =   3 [     222] linear =     3 [       222] cuts =  0 [   0]
  --> max chng: dcmx=   0.0000E+00  dc/dt=   0.0000E+00 [mol/s]
 Step     75 Time=  3.10580E+06 Dt=  1.00000E+05 [y] snes_conv_reason:    2
  newton =   3 [     225] linear =     3 [       225] cuts =  0 [   0]
  --> max chng: dcmx=   0.0000E+00  dc/dt=   0.0000E+00 [mol/s]
 Step     76 Time=  3.20580E+06 Dt=  1.00000E+05 [y] snes_conv_reason:    2
  newton =   3 [     228] linear =     3 [       228] cuts =  0 [   0]
  --> max chng: dcmx=   0.0000E+00  dc/dt=   0.0000E+00 [mol/s]
 Step     77 Time=  3.30580E+06 Dt=  1.00000E+05 [y] snes_conv_reason:    2
  newton =   3 [     231] linear =     3 [       231] cuts =  0 [   0]
  --> max chng: dcmx=   0.0000E+00  dc/dt=   0.0000E+00 [mol/s]
 Step     78 Time=  3.40580E+06 Dt=  1.00000E+05 [y] snes_conv_reason:    2
  newton =   3 [     234] linear =     3 [       234] cuts =  0 [   0]
  --> max chng: dcmx=   0.0000E+00  dc/dt=   0.0000E+00 [mol/s]
 Step     79 Time=  3.50580E+06 Dt=  1.00000E+05 [y] snes_conv_reason:    2
  newton =   3 [     237] linear =     3 [       237] cuts =  0 [   0]
  --> max chng: dcmx=   0.0000E+00  dc/dt=   0.0000E+00 [mol/s]
 Step     80 Time=  3.60580E+06 Dt=  1.00000E+05 [y] snes_conv_reason:    2
  newton =   3 [     240] linear =     3 [       240] cuts =  0 [   0]
  --> max chng: dcmx=   0.0000E+00  dc/dt=   0.0000E+00 [mol/s]
 Step     81 Time=  3.70580E+06 Dt=  1.00000E+05 [y] snes_conv_reason:    2
  newton =   3 [     243] linear =     3 [       243] cuts =  0 [   0]
  --> max chng: dcmx=   0.0000E+00  dc/dt=   0.0000E+00 [mol/s]
 Step     82 Time=  3.80580E+06 Dt=  1.00000E+05 [y] snes_conv_reason:    2
  newton =   3 [     246] linear =     3 [       246] cuts =  0 [   0]
  --> max chng: dcmx=   0.0000E+00  dc/dt=   0.0000E+00 [mol/s]
 Step     83 Time=  3.90580E+06 Dt=  1.00000E+05 [y] snes_conv_reason:    2
  newton =   3 [     249] linear =     3 [       249] cuts =  0 [   0]
  --> max chng: dcmx=   0.0000E+00  dc/dt=   0.0000E+00 [mol/s]
 Step     84 Time=  4.00580E+06 Dt=  1.00000E+05 [y] snes_conv_reason:    2
  newton =   3 [     252] linear =     3 [       252] cuts =  0 [   0]
  --> max chng: dcmx=   0.0000E+00  dc/dt=   0.0000E+00 [mol/s]
 Step     85 Time=  4.10580E+06 Dt=  1.00000E+05 [y] snes_conv_reason:    2
  newton =   3 [     255] linear =     3 [       255] cuts =  0 [   0]
  --> max chng: dcmx=   0.0000E+00  dc/dt=   0.0000E+00 [mol/s]
 Step     86 Time=  4.20580E+06 Dt=  1.00000E+05 [y] snes_conv_reason:    2
  newton =   3 [     258] linear =     3 [       258] cuts =  0 [   0]
  --> max chng: dcmx=   0.0000E+00  dc/dt=   0.0000E+00 [mol/s]
 Step     87 Time=  4.30580E+06 Dt=  1.00000E+05 [y] snes_conv_reason:    2
  newton =   3 [     261] linear =     3 [       261] cuts =  0 [   0]
  --> max chng: dcmx=   0.0000E+00  dc/dt=   0.0000E+00 [mol/s]
 Step     88 Time=  4.40580E+06 Dt=  1.00000E+05 [y] snes_conv_reason:    2
  newton =   3 [     264] linear =     3 [       264] cuts =  0 [   0]
  --> max chng: dcmx=   0.0000E+00  dc/dt=   0.0000E+00 [mol/s]
 Step     89 Time=  4.50580E+06 Dt=  1.00000E+05 [y] snes_conv_reason:    2
  newton =   3 [     267] linear =     3 [       267] cuts =  0 [   0]
  --> max chng: dcmx=   0.0000E+00  dc/dt=   0.0000E+00 [mol/s]
 Step     90 Time=  4.60580E+06 Dt=  1.00000E+05 [y] snes_conv_reason:    2
  newton =   3 [     270] linear =     3 [       270] cuts =  0 [   0]
  --> max chng: dcmx=   0.0000E+00  dc/dt=   0.0000E+00 [mol/s]
 Step     91 Time=  4.70580E+06 Dt=  1.00000E+05 [y] snes_conv_reason:    2
  newton =   3 [     273] linear =     3 [       273] cuts =  0 [   0]
  --> max chng: dcmx=   0.0000E+00  dc/dt=   0.0000E+00 [mol/s]
 Step     92 Time=  4.80580E+06 Dt=  1.00000E+05 [y] snes_conv_reason:    2
  newton =   3 [     276] linear =     3 [       276] cuts =  0 [   0]
  --> max chng: dcmx=   0.0000E+00  dc/dt=   0.0000E+00 [mol/s]
 Step     93 Time=  4.90580E+06 Dt=  1.00000E+05 [y] snes_conv_reason:    2
  newton =   3 [     279] linear =     3 [       279] cuts =  0 [   0]
  --> max chng: dcmx=   0.0000E+00  dc/dt=   0.0000E+00 [mol/s]
 Step     94 Time=  5.00580E+06 Dt=  1.00000E+05 [y] snes_conv_reason:    2
  newton =   3 [     282] linear =     3 [       282] cuts =  0 [   0]
  --> max chng: dcmx=   0.0000E+00  dc/dt=   0.0000E+00 [mol/s]
 Step     95 Time=  5.10580E+06 Dt=  1.00000E+05 [y] snes_conv_reason:    2
  newton =   3 [     285] linear =     3 [       285] cuts =  0 [   0]
  --> max chng: dcmx=   0.0000E+00  dc/dt=   0.0000E+00 [mol/s]
 Step     96 Time=  5.20580E+06 Dt=  1.00000E+05 [y] snes_conv_reason:    2
  newton =   3 [     288] linear =     3 [       288] cuts =  0 [   0]
  --> max chng: dcmx=   0.0000E+00  dc/dt=   0.0000E+00 [mol/s]
 Step     97 Time=  5.30580E+06 Dt=  1.00000E+05 [y] snes_conv_reason:    2
  newton =   3 [     291] linear =     3 [       291] cuts =  0 [   0]
  --> max chng: dcmx=   0.0000E+00  dc/dt=   0.0000E+00 [mol/s]
 Step     98 Time=  5.40580E+06 Dt=  1.00000E+05 [y] snes_conv_reason:    2
  newton =   3 [     294] linear =     3 [       294] cuts =  0 [   0]
  --> max chng: dcmx=   0.0000E+00  dc/dt=   0.0000E+00 [mol/s]
 Step     99 Time=  5.50580E+06 Dt=  1.00000E+05 [y] snes_conv_reason:    2
  newton =   3 [     297] linear =     3 [       297] cuts =  0 [   0]
  --> max chng: dcmx=   0.0000E+00  dc/dt=   0.0000E+00 [mol/s]
 Step    100 Time=  5.60580E+06 Dt=  1.00000E+05 [y] snes_conv_reason:    2
  newton =   3 [     300] linear =     3 [       300] cuts =  0 [   0]
  --> max chng: dcmx=   0.0000E+00  dc/dt=   0.0000E+00 [mol/s]
 Step    101 Time=  5.70580E+06 Dt=  1.00000E+05 [y] snes_conv_reason:    2
  newton =   3 [     303] linear =     3 [       303] cuts =  0 [   0]
  --> max chng: dcmx=   0.0000E+00  dc/dt=   0.0000E+00 [mol/s]
 Step    102 Time=  5.80580E+06 Dt=  1.00000E+05 [y] snes_conv_reason:    2
  newton =   3 [     306] linear =     3 [       306] cuts =  0 [   0]
  --> max chng: dcmx=   0.0000E+00  dc/dt=   0.0000E+00 [mol/s]
 Step    103 Time=  5.90580E+06 Dt=  1.00000E+05 [y] snes_conv_reason:    2
  newton =   3 [     309] linear =     3 [       309] cuts =  0 [   0]
  --> max chng: dcmx=   0.0000E+00  dc/dt=   0.0000E+00 [mol/s]
 Step    104 Time=  6.00580E+06 Dt=  1.00000E+05 [y] snes_conv_reason:    2
  newton =   3 [     312] linear =     3 [       312] cuts =  0 [   0]
  --> max chng: dcmx=   0.0000E+00  dc/dt=   0.0000E+00 [mol/s]
 Step    105 Time=  6.10580E+06 Dt=  1.00000E+05 [y] snes_conv_reason:    2
  newton =   3 [     315] linear =     3 [       315] cuts =  0 [   0]
  --> max chng: dcmx=   0.0000E+00  dc/dt=   0.0000E+00 [mol/s]
 Step    106 Time=  6.20580E+06 Dt=  1.00000E+05 [y] snes_conv_reason:    2
  newton =   3 [     318] linear =     3 [       318] cuts =  0 [   0]
  --> max chng: dcmx=   0.0000E+00  dc/dt=   0.0000E+00 [mol/s]
 Step    107 Time=  6.30580E+06 Dt=  1.00000E+05 [y] snes_conv_reason:    2
  newton =   3 [     321] linear =     3 [       321] cuts =  0 [   0]
  --> max chng: dcmx=   0.0000E+00  dc/dt=   0.0000E+00 [mol/s]
 Step    108 Time=  6.40580E+06 Dt=  1.00000E+05 [y] snes_conv_reason:    2
  newton =   3 [     324] linear =     3 [       324] cuts =  0 [   0]
  --> max chng: dcmx=   0.0000E+00  dc/dt=   0.0000E+00 [mol/s]
 Step    109 Time=  6.50580E+06 Dt=  1.00000E+05 [y] snes_conv_reason:    2
  newton =   3 [     327] linear =     3 [       327] cuts =  0 [   0]
  --> max chng: dcmx=   0.0000E+00  dc/dt=   0.0000E+00 [mol/s]
 Step    110 Time=  6.60580E+06 Dt=  1.00000E+05 [y] snes_conv_reason:    2
  newton =   3 [     330] linear =     3 [       330] cuts =  0 [   0]
  --> max chng: dcmx=   0.0000E+00  dc/dt=   0.0000E+00 [mol/s]
 Step    111 Time=  6.70580E+06 Dt=  1.00000E+05 [y] snes_conv_reason:    2
  newton =   3 [     333] linear =     3 [       333] cuts =  0 [   0]
  --> max chng: dcmx=   0.0000E+00  dc/dt=   0.0000E+00 [mol/s]
 Step    112 Time=  6.80580E+06 Dt=  1.00000E+05 [y] snes_conv_reason:    2
  newton =   3 [     336] linear =     3 [       336] cuts =  0 [   0]
  --> max chng: dcmx=   0.0000E+00  dc/dt=   0.0000E+00 [mol/s]
 Step    113 Time=  6.90580E+06 Dt=  1.00000E+05 [y] snes_conv_reason:    2
  newton =   3 [     339] linear =     3 [       339] cuts =  0 [   0]
  --> max chng: dcmx=   0.0000E+00  dc/dt=   0.0000E+00 [mol/s]
 Step    114 Time=  7.00580E+06 Dt=  1.00000E+05 [y] snes_conv_reason:    2
  newton =   3 [     342] linear =     3 [       342] cuts =  0 [   0]
  --> max chng: dcmx=   0.0000E+00  dc/dt=   0.0000E+00 [mol/s]
 Step    115 Time=  7.10580E+06 Dt=  1.00000E+05 [y] snes_conv_reason:    2
  newton =   3 [     345] linear =     3 [       345] cuts =  0 [   0]
  --> max chng: dcmx=   0.0000E+00  dc/dt=   0.0000E+00 [mol/s]
 Step    116 Time=  7.20580E+06 Dt=  1.00000E+05 [y] snes_conv_reason:    2
  newton =   3 [     348] linear =     3 [       348] cuts =  0 [   0]
  --> max chng: dcmx=   0.0000E+00  dc/dt=   0.0000E+00 [mol/s]
 Step    117 Time=  7.30580E+06 Dt=  1.00000E+05 [y] snes_conv_reason:    2
  newton =   3 [     351] linear =     3 [       351] cuts =  0 [   0]
  --> max chng: dcmx=   0.0000E+00  dc/dt=   0.0000E+00 [mol/s]
 Step    118 Time=  7.40580E+06 Dt=  1.00000E+05 [y] snes_conv_reason:    2
  newton =   3 [     354] linear =     3 [       354] cuts =  0 [   0]
  --> max chng: dcmx=   0.0000E+00  dc/dt=   0.0000E+00 [mol/s]
 Step    119 Time=  7.50580E+06 Dt=  1.00000E+05 [y] snes_conv_reason:    2
  newton =   3 [     357] linear =     3 [       357] cuts =  0 [   0]
  --> max chng: dcmx=   0.0000E+00  dc/dt=   0.0000E+00 [mol/s]
 Step    120 Time=  7.60580E+06 Dt=  1.00000E+05 [y] snes_conv_reason:    2
  newton =   3 [     360] linear =     3 [       360] cuts =  0 [   0]
  --> max chng: dcmx=   0.0000E+00  dc/dt=   0.0000E+00 [mol/s]
 Step    121 Time=  7.70580E+06 Dt=  1.00000E+05 [y] snes_conv_reason:    2
  newton =   3 [     363] linear =     3 [       363] cuts =  0 [   0]
  --> max chng: dcmx=   0.0000E+00  dc/dt=   0.0000E+00 [mol/s]
 Step    122 Time=  7.80580E+06 Dt=  1.00000E+05 [y] snes_conv_reason:    2
  newton =   3 [     366] linear =     3 [       366] cuts =  0 [   0]
  --> max chng: dcmx=   0.0000E+00  dc/dt=   0.0000E+00 [mol/s]
 Step    123 Time=  7.90580E+06 Dt=  1.00000E+05 [y] snes_conv_reason:    2
  newton =   3 [     369] linear =     3 [       369] cuts =  0 [   0]
  --> max chng: dcmx=   0.0000E+00  dc/dt=   0.0000E+00 [mol/s]
 Step    124 Time=  8.00580E+06 Dt=  1.00000E+05 [y] snes_conv_reason:    2
  newton =   3 [     372] linear =     3 [       372] cuts =  0 [   0]
  --> max chng: dcmx=   0.0000E+00  dc/dt=   0.0000E+00 [mol/s]
 Step    125 Time=  8.10580E+06 Dt=  1.00000E+05 [y] snes_conv_reason:    2
  newton =   3 [     375] linear =     3 [       375] cuts =  0 [   0]
  --> max chng: dcmx=   0.0000E+00  dc/dt=   0.0000E+00 [mol/s]
 Step    126 Time=  8.20580E+06 Dt=  1.00000E+05 [y] snes_conv_reason:    2
  newton =   3 [     378] linear =     3 [       378] cuts =  0 [   0]
  --> max chng: dcmx=   0.0000E+00  dc/dt=   0.0000E+00 [mol/s]
 Step    127 Time=  8.30580E+06 Dt=  1.00000E+05 [y] snes_conv_reason:    2
  newton =   3 [     381] linear =     3 [       381] cuts =  0 [   0]
  --> max chng: dcmx=   0.0000E+00  dc/dt=   0.0000E+00 [mol/s]
 Step    128 Time=  8.40580E+06 Dt=  1.00000E+05 [y] snes_conv_reason:    2
  newton =   3 [     384] linear =     3 [       384] cuts =  0 [   0]
  --> max chng: dcmx=   0.0000E+00  dc/dt=   0.0000E+00 [mol/s]
 Step    129 Time=  8.50580E+06 Dt=  1.00000E+05 [y] snes_conv_reason:    2
  newton =   3 [     387] linear =     3 [       387] cuts =  0 [   0]
  --> max chng: dcmx=   0.0000E+00  dc/dt=   0.0000E+00 [mol/s]
 Step    130 Time=  8.60580E+06 Dt=  1.00000E+05 [y] snes_conv_reason:    2
  newton =   3 [     390] linear =     3 [       390] cuts =  0 [   0]
  --> max chng: dcmx=   0.0000E+00  dc/dt=   0.0000E+00 [mol/s]
 Step    131 Time=  8.70580E+06 Dt=  1.00000E+05 [y] snes_conv_reason:    2
  newton =   3 [     393] linear =     3 [       393] cuts =  0 [   0]
  --> max chng: dcmx=   0.0000E+00  dc/dt=   0.0000E+00 [mol/s]
 Step    132 Time=  8.80580E+06 Dt=  1.00000E+05 [y] snes_conv_reason:    2
  newton =   3 [     396] linear =     3 [       396] cuts =  0 [   0]
  --> max chng: dcmx=   0.0000E+00  dc/dt=   0.0000E+00 [mol/s]
 Step    133 Time=  8.90580E+06 Dt=  1.00000E+05 [y] snes_conv_reason:    2
  newton =   3 [     399] linear =     3 [       399] cuts =  0 [   0]
  --> max chng: dcmx=   0.0000E+00  dc/dt=   0.0000E+00 [mol/s]
 Step    134 Time=  9.00580E+06 Dt=  1.00000E+05 [y] snes_conv_reason:    2
  newton =   3 [     402] linear =     3 [       402] cuts =  0 [   0]
  --> max chng: dcmx=   0.0000E+00  dc/dt=   0.0000E+00 [mol/s]
 Step    135 Time=  9.10580E+06 Dt=  1.00000E+05 [y] snes_conv_reason:    2
  newton =   3 [     405] linear =     3 [       405] cuts =  0 [   0]
  --> max chng: dcmx=   0.0000E+00  dc/dt=   0.0000E+00 [mol/s]
 Step    136 Time=  9.20580E+06 Dt=  1.00000E+05 [y] snes_conv_reason:    2
  newton =   3 [     408] linear =     3 [       408] cuts =  0 [   0]
  --> max chng: dcmx=   0.0000E+00  dc/dt=   0.0000E+00 [mol/s]
 Step    137 Time=  9.30580E+06 Dt=  1.00000E+05 [y] snes_conv_reason:    2
  newton =   3 [     411] linear =     3 [       411] cuts =  0 [   0]
  --> max chng: dcmx=   0.0000E+00  dc/dt=   0.0000E+00 [mol/s]
 Step    138 Time=  9.40580E+06 Dt=  1.00000E+05 [y] snes_conv_reason:    2
  newton =   3 [     414] linear =     3 [       414] cuts =  0 [   0]
  --> max chng: dcmx=   0.0000E+00  dc/dt=   0.0000E+00 [mol/s]
 Step    139 Time=  9.50580E+06 Dt=  1.00000E+05 [y] snes_conv_reason:    2
  newton =   3 [     417] linear =     3 [       417] cuts =  0 [   0]
  --> max chng: dcmx=   0.0000E+00  dc/dt=   0.0000E+00 [mol/s]
 Step    140 Time=  9.60580E+06 Dt=  1.00000E+05 [y] snes_conv_reason:    2
  newton =   3 [     420] linear =     3 [       420] cuts =  0 [   0]
  --> max chng: dcmx=   0.0000E+00  dc/dt=   0.0000E+00 [mol/s]
 Step    141 Time=  9.70580E+06 Dt=  1.00000E+05 [y] snes_conv_reason:    2
  newton =   3 [     423] linear =     3 [       423] cuts =  0 [   0]
  --> max chng: dcmx=   0.0000E+00  dc/dt=   0.0000E+00 [mol/s]
 Step    142 Time=  9.80580E+06 Dt=  1.00000E+05 [y] snes_conv_reason:    2
  newton =   3 [     426] linear =     3 [       426] cuts =  0 [   0]
  --> max chng: dcmx=   0.0000E+00  dc/dt=   0.0000E+00 [mol/s]
 Step    143 Time=  9.90580E+06 Dt=  1.00000E+05 [y] snes_conv_reason:    2
  newton =   3 [     429] linear =     3 [       429] cuts =  0 [   0]
  --> max chng: dcmx=   0.0000E+00  dc/dt=   0.0000E+00 [mol/s]
 Step    144 Time=  1.00058E+07 Dt=  1.00000E+05 [y] snes_conv_reason:    2
  newton =   3 [     432] linear =     3 [       432] cuts =  0 [   0]
  --> max chng: dcmx=   0.0000E+00  dc/dt=   0.0000E+00 [mol/s]
 Step    145 Time=  1.01058E+07 Dt=  1.00000E+05 [y] snes_conv_reason:    2
  newton =   3 [     435] linear =     3 [       435] cuts =  0 [   0]
  --> max chng: dcmx=   0.0000E+00  dc/dt=   0.0000E+00 [mol/s]
 Step    146 Time=  1.02058E+07 Dt=  1.00000E+05 [y] snes_conv_reason:    2
  newton =   3 [     438] linear =     3 [       438] cuts =  0 [   0]
  --> max chng: dcmx=   0.0000E+00  dc/dt=   0.0000E+00 [mol/s]
 Step    147 Time=  1.03058E+07 Dt=  1.00000E+05 [y] snes_conv_reason:    2
  newton =   3 [     441] linear =     3 [       441] cuts =  0 [   0]
  --> max chng: dcmx=   0.0000E+00  dc/dt=   0.0000E+00 [mol/s]
 Step    148 Time=  1.04058E+07 Dt=  1.00000E+05 [y] snes_conv_reason:    2
  newton =   3 [     444] linear =     3 [       444] cuts =  0 [   0]
  --> max chng: dcmx=   0.0000E+00  dc/dt=   0.0000E+00 [mol/s]
 Step    149 Time=  1.05058E+07 Dt=  1.00000E+05 [y] snes_conv_reason:    2
  newton =   3 [     447] linear =     3 [       447] cuts =  0 [   0]
  --> max chng: dcmx=   0.0000E+00  dc/dt=   0.0000E+00 [mol/s]
 Step    150 Time=  1.06058E+07 Dt=  1.00000E+05 [y] snes_conv_reason:    2
  newton =   3 [     450] linear =     3 [       450] cuts =  0 [   0]
  --> max chng: dcmx=   0.0000E+00  dc/dt=   0.0000E+00 [mol/s]
 Step    151 Time=  1.07058E+07 Dt=  1.00000E+05 [y] snes_conv_reason:    2
  newton =   3 [     453] linear =     3 [       453] cuts =  0 [   0]
  --> max chng: dcmx=   0.0000E+00  dc/dt=   0.0000E+00 [mol/s]
 Step    152 Time=  1.08058E+07 Dt=  1.00000E+05 [y] snes_conv_reason:    2
  newton =   3 [     456] linear =     3 [       456] cuts =  0 [   0]
  --> max chng: dcmx=   0.0000E+00  dc/dt=   0.0000E+00 [mol/s]
 Step    153 Time=  1.09058E+07 Dt=  1.00000E+05 [y] snes_conv_reason:    2
  newton =   3 [     459] linear =     3 [       459] cuts =  0 [   0]
  --> max chng: dcmx=   0.0000E+00  dc/dt=   0.0000E+00 [mol/s]
 Step    154 Time=  1.10058E+07 Dt=  1.00000E+05 [y] snes_conv_reason:    2
  newton =   3 [     462] linear =     3 [       462] cuts =  0 [   0]
  --> max chng: dcmx=   0.0000E+00  dc/dt=   0.0000E+00 [mol/s]
 Step    155 Time=  1.11058E+07 Dt=  1.00000E+05 [y] snes_conv_reason:    2
  newton =   3 [     465] linear =     3 [       465] cuts =  0 [   0]
  --> max chng: dcmx=   0.0000E+00  dc/dt=   0.0000E+00 [mol/s]
 Step    156 Time=  1.12058E+07 Dt=  1.00000E+05 [y] snes_conv_reason:    2
  newton =   3 [     468] linear =     3 [       468] cuts =  0 [   0]
  --> max chng: dcmx=   0.0000E+00  dc/dt=   0.0000E+00 [mol/s]
 Step    157 Time=  1.13058E+07 Dt=  1.00000E+05 [y] snes_conv_reason:    2
  newton =   3 [     471] linear =     3 [       471] cuts =  0 [   0]
  --> max chng: dcmx=   0.0000E+00  dc/dt=   0.0000E+00 [mol/s]
 Step    158 Time=  1.14058E+07 Dt=  1.00000E+05 [y] snes_conv_reason:    2
  newton =   3 [     474] linear =     3 [       474] cuts =  0 [   0]
  --> max chng: dcmx=   0.0000E+00  dc/dt=   0.0000E+00 [mol/s]
 Step    159 Time=  1.15058E+07 Dt=  1.00000E+05 [y] snes_conv_reason:    2
  newton =   3 [     477] linear =     3 [       477] cuts =  0 [   0]
  --> max chng: dcmx=   0.0000E+00  dc/dt=   0.0000E+00 [mol/s]
 Step    160 Time=  1.16058E+07 Dt=  1.00000E+05 [y] snes_conv_reason:    2
  newton =   3 [     480] linear =     3 [       480] cuts =  0 [   0]
  --> max chng: dcmx=   0.0000E+00  dc/dt=   0.0000E+00 [mol/s]
 Step    161 Time=  1.17058E+07 Dt=  1.00000E+05 [y] snes_conv_reason:    2
  newton =   3 [     483] linear =     3 [       483] cuts =  0 [   0]
  --> max chng: dcmx=   0.0000E+00  dc/dt=   0.0000E+00 [mol/s]
 Step    162 Time=  1.18058E+07 Dt=  1.00000E+05 [y] snes_conv_reason:    2
  newton =   3 [     486] linear =     3 [       486] cuts =  0 [   0]
  --> max chng: dcmx=   0.0000E+00  dc/dt=   0.0000E+00 [mol/s]
 Step    163 Time=  1.19058E+07 Dt=  1.00000E+05 [y] snes_conv_reason:    2
  newton =   3 [     489] linear =     3 [       489] cuts =  0 [   0]
  --> max chng: dcmx=   0.0000E+00  dc/dt=   0.0000E+00 [mol/s]
 Step    164 Time=  1.20058E+07 Dt=  1.00000E+05 [y] snes_conv_reason:    2
  newton =   3 [     492] linear =     3 [       492] cuts =  0 [   0]
  --> max chng: dcmx=   0.0000E+00  dc/dt=   0.0000E+00 [mol/s]
 Step    165 Time=  1.21058E+07 Dt=  1.00000E+05 [y] snes_conv_reason:    2
  newton =   3 [     495] linear =     3 [       495] cuts =  0 [   0]
  --> max chng: dcmx=   0.0000E+00  dc/dt=   0.0000E+00 [mol/s]
 Step    166 Time=  1.22058E+07 Dt=  1.00000E+05 [y] snes_conv_reason:    2
  newton =   3 [     498] linear =     3 [       498] cuts =  0 [   0]
  --> max chng: dcmx=   0.0000E+00  dc/dt=   0.0000E+00 [mol/s]
 Step    167 Time=  1.23058E+07 Dt=  1.00000E+05 [y] snes_conv_reason:    2
  newton =   3 [     501] linear =     3 [       501] cuts =  0 [   0]
  --> max chng: dcmx=   0.0000E+00  dc/dt=   0.0000E+00 [mol/s]
 Step    168 Time=  1.24058E+07 Dt=  1.00000E+05 [y] snes_conv_reason:    2
  newton =   3 [     504] linear =     3 [       504] cuts =  0 [   0]
  --> max chng: dcmx=   0.0000E+00  dc/dt=   0.0000E+00 [mol/s]
 Step    169 Time=  1.25058E+07 Dt=  1.00000E+05 [y] snes_conv_reason:    2
  newton =   3 [     507] linear =     3 [       507] cuts =  0 [   0]
  --> max chng: dcmx=   0.0000E+00  dc/dt=   0.0000E+00 [mol/s]
 Step    170 Time=  1.26058E+07 Dt=  1.00000E+05 [y] snes_conv_reason:    2
  newton =   3 [     510] linear =     3 [       510] cuts =  0 [   0]
  --> max chng: dcmx=   0.0000E+00  dc/dt=   0.0000E+00 [mol/s]
 Step    171 Time=  1.27058E+07 Dt=  1.00000E+05 [y] snes_conv_reason:    2
  newton =   3 [     513] linear =     3 [       513] cuts =  0 [   0]
  --> max chng: dcmx=   0.0000E+00  dc/dt=   0.0000E+00 [mol/s]
 Step    172 Time=  1.28058E+07 Dt=  1.00000E+05 [y] snes_conv_reason:    2
  newton =   3 [     516] linear =     3 [       516] cuts =  0 [   0]
  --> max chng: dcmx=   0.0000E+00  dc/dt=   0.0000E+00 [mol/s]
 Step    173 Time=  1.29058E+07 Dt=  1.00000E+05 [y] snes_conv_reason:    2
  newton =   3 [     519] linear =     3 [       519] cuts =  0 [   0]
  --> max chng: dcmx=   0.0000E+00  dc/dt=   0.0000E+00 [mol/s]
 Step    174 Time=  1.30058E+07 Dt=  1.00000E+05 [y] snes_conv_reason:    2
  newton =   3 [     522] linear =     3 [       522] cuts =  0 [   0]
  --> max chng: dcmx=   0.0000E+00  dc/dt=   0.0000E+00 [mol/s]
 Step    175 Time=  1.31058E+07 Dt=  1.00000E+05 [y] snes_conv_reason:    2
  newton =   3 [     525] linear =     3 [       525] cuts =  0 [   0]
  --> max chng: dcmx=   0.0000E+00  dc/dt=   0.0000E+00 [mol/s]
 Step    176 Time=  1.32058E+07 Dt=  1.00000E+05 [y] snes_conv_reason:    2
  newton =   3 [     528] linear =     3 [       528] cuts =  0 [   0]
  --> max chng: dcmx=   0.0000E+00  dc/dt=   0.0000E+00 [mol/s]
 Step    177 Time=  1.33058E+07 Dt=  1.00000E+05 [y] snes_conv_reason:    2
  newton =   3 [     531] linear =     3 [       531] cuts =  0 [   0]
  --> max chng: dcmx=   0.0000E+00  dc/dt=   0.0000E+00 [mol/s]
 Step    178 Time=  1.34058E+07 Dt=  1.00000E+05 [y] snes_conv_reason:    2
  newton =   3 [     534] linear =     3 [       534] cuts =  0 [   0]
  --> max chng: dcmx=   0.0000E+00  dc/dt=   0.0000E+00 [mol/s]
 Step    179 Time=  1.35058E+07 Dt=  1.00000E+05 [y] snes_conv_reason:    2
  newton =   3 [     537] linear =     3 [       537] cuts =  0 [   0]
  --> max chng: dcmx=   0.0000E+00  dc/dt=   0.0000E+00 [mol/s]
 Step    180 Time=  1.36058E+07 Dt=  1.00000E+05 [y] snes_conv_reason:    2
  newton =   3 [     540] linear =     3 [       540] cuts =  0 [   0]
  --> max chng: dcmx=   0.0000E+00  dc/dt=   0.0000E+00 [mol/s]
 Step    181 Time=  1.37058E+07 Dt=  1.00000E+05 [y] snes_conv_reason:    2
  newton =   3 [     543] linear =     3 [       543] cuts =  0 [   0]
  --> max chng: dcmx=   0.0000E+00  dc/dt=   0.0000E+00 [mol/s]
 Step    182 Time=  1.38058E+07 Dt=  1.00000E+05 [y] snes_conv_reason:    2
  newton =   3 [     546] linear =     3 [       546] cuts =  0 [   0]
  --> max chng: dcmx=   0.0000E+00  dc/dt=   0.0000E+00 [mol/s]
 Step    183 Time=  1.39058E+07 Dt=  1.00000E+05 [y] snes_conv_reason:    2
  newton =   3 [     549] linear =     3 [       549] cuts =  0 [   0]
  --> max chng: dcmx=   0.0000E+00  dc/dt=   0.0000E+00 [mol/s]
 Step    184 Time=  1.40058E+07 Dt=  1.00000E+05 [y] snes_conv_reason:    2
  newton =   3 [     552] linear =     3 [       552] cuts =  0 [   0]
  --> max chng: dcmx=   0.0000E+00  dc/dt=   0.0000E+00 [mol/s]
 Step    185 Time=  1.41058E+07 Dt=  1.00000E+05 [y] snes_conv_reason:    2
  newton =   3 [     555] linear =     3 [       555] cuts =  0 [   0]
  --> max chng: dcmx=   0.0000E+00  dc/dt=   0.0000E+00 [mol/s]
 Step    186 Time=  1.42058E+07 Dt=  1.00000E+05 [y] snes_conv_reason:    2
  newton =   3 [     558] linear =     3 [       558] cuts =  0 [   0]
  --> max chng: dcmx=   0.0000E+00  dc/dt=   0.0000E+00 [mol/s]
 Step    187 Time=  1.43058E+07 Dt=  1.00000E+05 [y] snes_conv_reason:    2
  newton =   3 [     561] linear =     3 [       561] cuts =  0 [   0]
  --> max chng: dcmx=   0.0000E+00  dc/dt=   0.0000E+00 [mol/s]
 Step    188 Time=  1.44058E+07 Dt=  1.00000E+05 [y] snes_conv_reason:    2
  newton =   3 [     564] linear =     3 [       564] cuts =  0 [   0]
  --> max chng: dcmx=   0.0000E+00  dc/dt=   0.0000E+00 [mol/s]
 Step    189 Time=  1.45058E+07 Dt=  1.00000E+05 [y] snes_conv_reason:    2
  newton =   3 [     567] linear =     3 [       567] cuts =  0 [   0]
  --> max chng: dcmx=   0.0000E+00  dc/dt=   0.0000E+00 [mol/s]
 Step    190 Time=  1.46058E+07 Dt=  1.00000E+05 [y] snes_conv_reason:    2
  newton =   3 [     570] linear =     3 [       570] cuts =  0 [   0]
  --> max chng: dcmx=   0.0000E+00  dc/dt=   0.0000E+00 [mol/s]
 Step    191 Time=  1.47058E+07 Dt=  1.00000E+05 [y] snes_conv_reason:    2
  newton =   3 [     573] linear =     3 [       573] cuts =  0 [   0]
  --> max chng: dcmx=   0.0000E+00  dc/dt=   0.0000E+00 [mol/s]
 Step    192 Time=  1.48058E+07 Dt=  1.00000E+05 [y] snes_conv_reason:    2
  newton =   3 [     576] linear =     3 [       576] cuts =  0 [   0]
  --> max chng: dcmx=   0.0000E+00  dc/dt=   0.0000E+00 [mol/s]
 Step    193 Time=  1.49058E+07 Dt=  1.00000E+05 [y] snes_conv_reason:    2
  newton =   3 [     579] linear =     3 [       579] cuts =  0 [   0]
  --> max chng: dcmx=   0.0000E+00  dc/dt=   0.0000E+00 [mol/s]
 Step    194 Time=  1.50058E+07 Dt=  1.00000E+05 [y] snes_conv_reason:    2
  newton =   3 [     582] linear =     3 [       582] cuts =  0 [   0]
  --> max chng: dcmx=   0.0000E+00  dc/dt=   0.0000E+00 [mol/s]
 Step    195 Time=  1.51058E+07 Dt=  1.00000E+05 [y] snes_conv_reason:    2
  newton =   3 [     585] linear =     3 [       585] cuts =  0 [   0]
  --> max chng: dcmx=   0.0000E+00  dc/dt=   0.0000E+00 [mol/s]
 Step    196 Time=  1.52058E+07 Dt=  1.00000E+05 [y] snes_conv_reason:    2
  newton =   3 [     588] linear =     3 [       588] cuts =  0 [   0]
  --> max chng: dcmx=   0.0000E+00  dc/dt=   0.0000E+00 [mol/s]
 Step    197 Time=  1.53058E+07 Dt=  1.00000E+05 [y] snes_conv_reason:    2
  newton =   3 [     591] linear =     3 [       591] cuts =  0 [   0]
  --> max chng: dcmx=   0.0000E+00  dc/dt=   0.0000E+00 [mol/s]
 Step    198 Time=  1.54058E+07 Dt=  1.00000E+05 [y] snes_conv_reason:    2
  newton =   3 [     594] linear =     3 [       594] cuts =  0 [   0]
  --> max chng: dcmx=   0.0000E+00  dc/dt=   0.0000E+00 [mol/s]
 Step    199 Time=  1.55058E+07 Dt=  1.00000E+05 [y] snes_conv_reason:    2
  newton =   3 [     597] linear =     3 [       597] cuts =  0 [   0]
  --> max chng: dcmx=   0.0000E+00  dc/dt=   0.0000E+00 [mol/s]
 Step    200 Time=  1.56058E+07 Dt=  1.00000E+05 [y] snes_conv_reason:    2
  newton =   3 [     600] linear =     3 [       600] cuts =  0 [   0]
  --> max chng: dcmx=   0.0000E+00  dc/dt=   0.0000E+00 [mol/s]
 Step    201 Time=  1.57058E+07 Dt=  1.00000E+05 [y] snes_conv_reason:    2
  newton =   3 [     603] linear =     3 [       603] cuts =  0 [   0]
  --> max chng: dcmx=   0.0000E+00  dc/dt=   0.0000E+00 [mol/s]
 Step    202 Time=  1.58058E+07 Dt=  1.00000E+05 [y] snes_conv_reason:    2
  newton =   3 [     606] linear =     3 [       606] cuts =  0 [   0]
  --> max chng: dcmx=   0.0000E+00  dc/dt=   0.0000E+00 [mol/s]
 Step    203 Time=  1.59058E+07 Dt=  1.00000E+05 [y] snes_conv_reason:    2
  newton =   3 [     609] linear =     3 [       609] cuts =  0 [   0]
  --> max chng: dcmx=   0.0000E+00  dc/dt=   0.0000E+00 [mol/s]
 Step    204 Time=  1.60058E+07 Dt=  1.00000E+05 [y] snes_conv_reason:    2
  newton =   3 [     612] linear =     3 [       612] cuts =  0 [   0]
  --> max chng: dcmx=   0.0000E+00  dc/dt=   0.0000E+00 [mol/s]
 Step    205 Time=  1.61058E+07 Dt=  1.00000E+05 [y] snes_conv_reason:    2
  newton =   3 [     615] linear =     3 [       615] cuts =  0 [   0]
  --> max chng: dcmx=   0.0000E+00  dc/dt=   0.0000E+00 [mol/s]
 Step    206 Time=  1.62058E+07 Dt=  1.00000E+05 [y] snes_conv_reason:    2
  newton =   3 [     618] linear =     3 [       618] cuts =  0 [   0]
  --> max chng: dcmx=   0.0000E+00  dc/dt=   0.0000E+00 [mol/s]
 Step    207 Time=  1.63058E+07 Dt=  1.00000E+05 [y] snes_conv_reason:    2
  newton =   3 [     621] linear =     3 [       621] cuts =  0 [   0]
  --> max chng: dcmx=   0.0000E+00  dc/dt=   0.0000E+00 [mol/s]
 Step    208 Time=  1.64058E+07 Dt=  1.00000E+05 [y] snes_conv_reason:    2
  newton =   3 [     624] linear =     3 [       624] cuts =  0 [   0]
  --> max chng: dcmx=   0.0000E+00  dc/dt=   0.0000E+00 [mol/s]
 Step    209 Time=  1.65058E+07 Dt=  1.00000E+05 [y] snes_conv_reason:    2
  newton =   3 [     627] linear =     3 [       627] cuts =  0 [   0]
  --> max chng: dcmx=   0.0000E+00  dc/dt=   0.0000E+00 [mol/s]
 Step    210 Time=  1.66058E+07 Dt=  1.00000E+05 [y] snes_conv_reason:    2
  newton =   3 [     630] linear =     3 [       630] cuts =  0 [   0]
  --> max chng: dcmx=   0.0000E+00  dc/dt=   0.0000E+00 [mol/s]
 Step    211 Time=  1.67058E+07 Dt=  1.00000E+05 [y] snes_conv_reason:    2
  newton =   3 [     633] linear =     3 [       633] cuts =  0 [   0]
  --> max chng: dcmx=   0.0000E+00  dc/dt=   0.0000E+00 [mol/s]
 Step    212 Time=  1.68058E+07 Dt=  1.00000E+05 [y] snes_conv_reason:    2
  newton =   3 [     636] linear =     3 [       636] cuts =  0 [   0]
  --> max chng: dcmx=   0.0000E+00  dc/dt=   0.0000E+00 [mol/s]
 Step    213 Time=  1.69058E+07 Dt=  1.00000E+05 [y] snes_conv_reason:    2
  newton =   3 [     639] linear =     3 [       639] cuts =  0 [   0]
  --> max chng: dcmx=   0.0000E+00  dc/dt=   0.0000E+00 [mol/s]
 Step    214 Time=  1.70058E+07 Dt=  1.00000E+05 [y] snes_conv_reason:    2
  newton =   3 [     642] linear =     3 [       642] cuts =  0 [   0]
  --> max chng: dcmx=   0.0000E+00  dc/dt=   0.0000E+00 [mol/s]
 Step    215 Time=  1.71058E+07 Dt=  1.00000E+05 [y] snes_conv_reason:    2
  newton =   3 [     645] linear =     3 [       645] cuts =  0 [   0]
  --> max chng: dcmx=   0.0000E+00  dc/dt=   0.0000E+00 [mol/s]
 Step    216 Time=  1.72058E+07 Dt=  1.00000E+05 [y] snes_conv_reason:    2
  newton =   3 [     648] linear =     3 [       648] cuts =  0 [   0]
  --> max chng: dcmx=   0.0000E+00  dc/dt=   0.0000E+00 [mol/s]
 Step    217 Time=  1.73058E+07 Dt=  1.00000E+05 [y] snes_conv_reason:    2
  newton =   3 [     651] linear =     3 [       651] cuts =  0 [   0]
  --> max chng: dcmx=   0.0000E+00  dc/dt=   0.0000E+00 [mol/s]
 Step    218 Time=  1.74058E+07 Dt=  1.00000E+05 [y] snes_conv_reason:    2
  newton =   3 [     654] linear =     3 [       654] cuts =  0 [   0]
  --> max chng: dcmx=   0.0000E+00  dc/dt=   0.0000E+00 [mol/s]
 Step    219 Time=  1.75058E+07 Dt=  1.00000E+05 [y] snes_conv_reason:    2
  newton =   3 [     657] linear =     3 [       657] cuts =  0 [   0]
  --> max chng: dcmx=   0.0000E+00  dc/dt=   0.0000E+00 [mol/s]
 Step    220 Time=  1.76058E+07 Dt=  1.00000E+05 [y] snes_conv_reason:    2
  newton =   3 [     660] linear =     3 [       660] cuts =  0 [   0]
  --> max chng: dcmx=   0.0000E+00  dc/dt=   0.0000E+00 [mol/s]
 Step    221 Time=  1.77058E+07 Dt=  1.00000E+05 [y] snes_conv_reason:    2
  newton =   3 [     663] linear =     3 [       663] cuts =  0 [   0]
  --> max chng: dcmx=   0.0000E+00  dc/dt=   0.0000E+00 [mol/s]
 Step    222 Time=  1.78058E+07 Dt=  1.00000E+05 [y] snes_conv_reason:    2
  newton =   3 [     666] linear =     3 [       666] cuts =  0 [   0]
  --> max chng: dcmx=   0.0000E+00  dc/dt=   0.0000E+00 [mol/s]
 Step    223 Time=  1.79058E+07 Dt=  1.00000E+05 [y] snes_conv_reason:    2
  newton =   3 [     669] linear =     3 [       669] cuts =  0 [   0]
  --> max chng: dcmx=   0.0000E+00  dc/dt=   0.0000E+00 [mol/s]
 Step    224 Time=  1.80058E+07 Dt=  1.00000E+05 [y] snes_conv_reason:    2
  newton =   3 [     672] linear =     3 [       672] cuts =  0 [   0]
  --> max chng: dcmx=   0.0000E+00  dc/dt=   0.0000E+00 [mol/s]
 Step    225 Time=  1.81058E+07 Dt=  1.00000E+05 [y] snes_conv_reason:    2
  newton =   3 [     675] linear =     3 [       675] cuts =  0 [   0]
  --> max chng: dcmx=   0.0000E+00  dc/dt=   0.0000E+00 [mol/s]
 Step    226 Time=  1.82058E+07 Dt=  1.00000E+05 [y] snes_conv_reason:    2
  newton =   3 [     678] linear =     3 [       678] cuts =  0 [   0]
  --> max chng: dcmx=   0.0000E+00  dc/dt=   0.0000E+00 [mol/s]
 Step    227 Time=  1.83058E+07 Dt=  1.00000E+05 [y] snes_conv_reason:    2
  newton =   3 [     681] linear =     3 [       681] cuts =  0 [   0]
  --> max chng: dcmx=   0.0000E+00  dc/dt=   0.0000E+00 [mol/s]
 Step    228 Time=  1.84058E+07 Dt=  1.00000E+05 [y] snes_conv_reason:    2
  newton =   3 [     684] linear =     3 [       684] cuts =  0 [   0]
  --> max chng: dcmx=   0.0000E+00  dc/dt=   0.0000E+00 [mol/s]
 Step    229 Time=  1.85058E+07 Dt=  1.00000E+05 [y] snes_conv_reason:    2
  newton =   3 [     687] linear =     3 [       687] cuts =  0 [   0]
  --> max chng: dcmx=   0.0000E+00  dc/dt=   0.0000E+00 [mol/s]
 Step    230 Time=  1.86058E+07 Dt=  1.00000E+05 [y] snes_conv_reason:    2
  newton =   3 [     690] linear =     3 [       690] cuts =  0 [   0]
  --> max chng: dcmx=   0.0000E+00  dc/dt=   0.0000E+00 [mol/s]
 Step    231 Time=  1.87058E+07 Dt=  1.00000E+05 [y] snes_conv_reason:    2
  newton =   3 [     693] linear =     3 [       693] cuts =  0 [   0]
  --> max chng: dcmx=   0.0000E+00  dc/dt=   0.0000E+00 [mol/s]
 Step    232 Time=  1.88058E+07 Dt=  1.00000E+05 [y] snes_conv_reason:    2
  newton =   3 [     696] linear =     3 [       696] cuts =  0 [   0]
  --> max chng: dcmx=   0.0000E+00  dc/dt=   0.0000E+00 [mol/s]
 Step    233 Time=  1.89058E+07 Dt=  1.00000E+05 [y] snes_conv_reason:    2
  newton =   3 [     699] linear =     3 [       699] cuts =  0 [   0]
  --> max chng: dcmx=   0.0000E+00  dc/dt=   0.0000E+00 [mol/s]
 Step    234 Time=  1.90000E+07 Dt=  9.42000E+04 [y] snes_conv_reason:    2
  newton =   3 [     702] linear =     3 [       702] cuts =  0 [   0]
  --> max chng: dcmx=   0.0000E+00  dc/dt=   0.0000E+00 [mol/s]

 Wall Clock Time:  2.5361E-01 [sec]   4.2268E-03 [min]   7.0447E-05 [hr]
